{
  "project_info": {
    "project_number": "482197884275",
    "firebase_url": "https://iceology-app.firebaseio.com",
    "project_id": "iceology-app",
    "storage_bucket": "iceology-app.appspot.com"
  },
  "client": [
    {
      "client_info": {
        "mobilesdk_app_id": "1:482197884275:android:a9f94aff31cf3c2d",
        "android_client_info": {
          "package_name": "com.iceology"
        }
      },
      "oauth_client": [
        {
          "client_id": "482197884275-1kgcbc2gg1387mv05dufdt1d5l39nrps.apps.googleusercontent.com",
          "client_type": 3
        }
      ],
      "api_key": [
        {
          "current_key": "AIzaSyCqZVIRrxVOSXwpps4I3UWcr2foLmDsgVI"
        }
      ],
      "services": {
        "analytics_service": {
          "status": 1
        },
        "appinvite_service": {
          "status": 1,
          "other_platform_oauth_client": []
        },
        "ads_service": {
          "status": 2
        }
      }
    }
  ],
  "configuration_version": "1"
}